clinic_engagement_2.utf8
…
fup_filtered %>% select(achd_id, clinic_date, clinic_comment, seen_by) %>%
             filter(clinic_date >= as.Date('01/01/2013', format='%d/%m/%Y')) %>%
             filter(seen_by == "Other") %>% 
             nrow()

## [1] 0

fup_filtered %>% select(achd_id, clinic_date, clinic_comment, seen_by) %>%
             filter(clinic_date >= as.Date('01/01/2013', format='%d/%m/%Y')) %>%
             filter(seen_by == "SHC")

## # A tibble: 1,082 x 4
##    achd_id clinic_date clinic_comment         seen_by
##    <fct>   <date>      <fct>                  <fct>  
##  1 4287    2015-09-07  "SHC ACHD_DrRC_New"    SHC    
##  2 4603    2017-12-04  "SHC DR RC"            SHC    
##  3 4603    2019-06-03  "SHC ACHD DR RC"       SHC    
##  4 4603    2020-06-01  "SHC"                  SHC    
##  5 712     2013-07-01  "SHC"                  SHC    
##  6 712     2014-10-23  "SHC"                  SHC    
##  7 712     2016-10-05  "SHC"                  SHC    
##  8 2695    2016-08-12  "SHC"                  SHC    
##  9 3824    2014-03-14  "RPAH SHC ACHD clinic" SHC    
## 10 3748    2013-07-10  ""                     SHC    
## #  with 1,072 more rows
…
